
 _     _                  _ 
| |   (_)______ _ _ __ __| |
| |   | |_  / _` | '__/ _` |
| |___| |/ / (_| | | | (_| |
|_____|_/___\__,_|_|  \__,_|
                            
    _    ____ ___    ____      _        _             
   / \  |  _ \_ _|  / ___|__ _| |_ __ _| | ___   __ _ 
  / _ \ | |_) | |  | |   / _` | __/ _` | |/ _ \ / _` |
 / ___ \|  __/| |  | |__| (_| | || (_| | | (_) | (_| |
/_/   \_\_|  |___|  \____\__,_|\__\__,_|_|\___/ \__, |
                                                |___/                                                                
${application.formatted-version}

                                                   Spring-boot ${spring-boot.formatted-version}

