{
  "name": "lizard",
  "description": "lizard release manifest for push2cloud",
  "version": "2.0.0",
  "source": {
    "type": "git",
    "url": "https://gitlab.com/x_tao/lizard.git",
    "referenceValue": "v2.0.0"
  },
  "apps": {
    "catalog": {
      "path": "catalog/",
	  "manifest": "application.json"
    },
    "eligibility": {
      "path": "eligibility/",
	  "manifest": "application.json"
    }
  }
}