
 _     _                  _ 
| |   (_)______ _ _ __ __| |
| |   | |_  / _` | '__/ _` |
| |___| |/ / (_| | | | (_| |
|_____|_/___\__,_|_|  \__,_|
                            
   _   ___ ___   ___ _ _      _ _    _ _ _ _        
  /_\ | _ \_ _| | __| (_)__ _(_) |__(_) (_) |_ _  _ 
 / _ \|  _/| |  | _|| | / _` | | '_ \ | | |  _| || |
/_/ \_\_| |___| |___|_|_\__, |_|_.__/_|_|_|\__|\_, |
                        |___/                  |__/ 
                                                    
${application.formatted-version}

                                                   Spring-boot ${spring-boot.formatted-version}

