{
  "name": "eligibility",
  "version": "2.0.0",
  "deployment": {
	"instances": 3,
	"env": {
		"SPRING_CLOUD_CONFIG_LABEL": "master",
		"SPRING_PROFILES_ACTIVE": "cloud",
		"ELIGIBILITY_COMMERCIAL_OPERATIONS[REC]_LIBELLE": "New_version"
    },
	"serviceBinding": [
		"lizard-eureka-service", 
		"lizard-zipkin-service"
    ],
    "path": "target/lizard-eligibility-service-2.0.0-SNAPSHOT.jar",
    "scripts": {
      "package": [
        "mvn install"
      ]
    }
  }
}
